EESchema Schematic File Version 4
EELAYER 30 0
EELAYER END
$Descr A4 11693 8268
encoding utf-8
Sheet 1 1
Title "Alonzo v1.0.0"
Date ""
Rev "1.0.0"
Comp ""
Comment1 ""
Comment2 ""
Comment3 ""
Comment4 ""
$EndDescr
$Comp
L MCU_ST_STM32F4:STM32F411CEUx U1
U 1 1 5F918156
P 3900 5800
F 0 "U1" H 3300 7400 50  0000 C CNN
F 1 "STM32F411CEUx" H 3300 7500 50  0000 C CNN
F 2 "Package_DFN_QFN:QFN-48-1EP_7x7mm_P0.5mm_EP5.6x5.6mm" H 3300 4300 50  0001 R CNN
F 3 "http://www.st.com/st-web-ui/static/active/en/resource/technical/document/datasheet/DM00115249.pdf" H 3900 5800 50  0001 C CNN
	1    3900 5800
	1    0    0    -1  
$EndComp
$Comp
L Regulator_Linear:HT75xx-1-SOT89 U3
U 1 1 5F92442F
P 5200 1000
F 0 "U3" H 5200 1367 50  0000 C CNN
F 1 "HT7330-SOT89" H 5200 1276 50  0000 C CNN
F 2 "Package_TO_SOT_SMD:SOT-89-3" H 5200 1325 50  0001 C CIN
F 3 "https://www.holtek.com/documents/10179/116711/HT75xx-1v250.pdf" H 5200 1100 50  0001 C CNN
	1    5200 1000
	1    0    0    -1  
$EndComp
$Comp
L Device:Crystal_GND24 Y1
U 1 1 5F92B419
P 2350 5000
F 0 "Y1" H 2544 5046 50  0000 L CNN
F 1 "24M" H 2544 4955 50  0000 L CNN
F 2 "Crystal:Crystal_SMD_3225-4Pin_3.2x2.5mm" H 2350 5000 50  0001 C CNN
F 3 "~" H 2350 5000 50  0001 C CNN
	1    2350 5000
	1    0    0    -1  
$EndComp
$Comp
L Connector:Conn_01x08_Male J1
U 1 1 5F92DB8F
P 5700 5700
F 0 "J1" H 5808 6181 50  0000 C CNN
F 1 "Conn_01x08_Male" H 5808 6090 50  0000 C CNN
F 2 "Connector_PinHeader_2.54mm:PinHeader_1x08_P2.54mm_Vertical" H 5700 5700 50  0001 C CNN
F 3 "~" H 5700 5700 50  0001 C CNN
	1    5700 5700
	1    0    0    -1  
$EndComp
$Comp
L Connector:TestPoint TP1
U 1 1 5F953E19
P 6100 900
F 0 "TP1" H 6158 1018 50  0000 L CNN
F 1 "TestPoint" H 6158 927 50  0001 L CNN
F 2 "TestPoint:TestPoint_Pad_D1.0mm" H 6300 900 50  0001 C CNN
F 3 "~" H 6300 900 50  0001 C CNN
	1    6100 900 
	1    0    0    -1  
$EndComp
$Comp
L Device:Crystal_GND24 Y2
U 1 1 5F96338F
P 7300 1600
F 0 "Y2" H 7494 1646 50  0000 L CNN
F 1 "24M" H 7494 1555 50  0000 L CNN
F 2 "Crystal:Crystal_SMD_3225-4Pin_3.2x2.5mm" H 7300 1600 50  0001 C CNN
F 3 "~" H 7300 1600 50  0001 C CNN
	1    7300 1600
	1    0    0    -1  
$EndComp
$Comp
L Power_Protection:SRV05-4 U4
U 1 1 5F9CA34B
P 4500 2800
F 0 "U4" H 4700 3400 50  0000 C CNN
F 1 "SRV05-4" H 4800 3300 50  0000 C CNN
F 2 "Package_TO_SOT_SMD:SOT-23-6" H 5200 2350 50  0001 C CNN
F 3 "http://www.onsemi.com/pub/Collateral/SRV05-4-D.PDF" H 4500 2800 50  0001 C CNN
	1    4500 2800
	1    0    0    -1  
$EndComp
$Comp
L alonzo:TP4056 U2
U 1 1 5F9E7F13
P 1700 900
F 0 "U2" H 2050 1065 50  0000 C CNN
F 1 "TP4056" H 2050 974 50  0000 C CNN
F 2 "Package_SO:SOP-8_3.76x4.96mm_P1.27mm" H 2100 100 50  0001 C CNN
F 3 "" H 1700 900 50  0001 C CNN
	1    1700 900 
	1    0    0    -1  
$EndComp
Wire Wire Line
	2000 2400 2100 2400
$Comp
L Device:R_Small R2
U 1 1 5F9ECA26
P 2300 2600
F 0 "R2" V 2104 2600 50  0000 C CNN
F 1 "5.1k" V 2195 2600 50  0000 C CNN
F 2 "Resistor_SMD:R_0402_1005Metric" H 2300 2600 50  0001 C CNN
F 3 "~" H 2300 2600 50  0001 C CNN
	1    2300 2600
	0    1    1    0   
$EndComp
$Comp
L Device:R_Small R1
U 1 1 5F9ED31D
P 2100 2700
F 0 "R1" V 1904 2700 50  0000 C CNN
F 1 "5.1k" V 1995 2700 50  0000 C CNN
F 2 "Resistor_SMD:R_0402_1005Metric" H 2100 2700 50  0001 C CNN
F 3 "~" H 2100 2700 50  0001 C CNN
	1    2100 2700
	0    1    1    0   
$EndComp
$Comp
L power:GND #PWR0101
U 1 1 5F9EEDA9
P 2400 2700
F 0 "#PWR0101" H 2400 2450 50  0001 C CNN
F 1 "GND" H 2405 2527 50  0000 C CNN
F 2 "" H 2400 2700 50  0001 C CNN
F 3 "" H 2400 2700 50  0001 C CNN
	1    2400 2700
	1    0    0    -1  
$EndComp
Wire Wire Line
	2000 3000 2000 2900
Wire Wire Line
	2000 3100 2000 3200
$Comp
L power:GND #PWR0102
U 1 1 5F9F0B1F
P 1100 3900
F 0 "#PWR0102" H 1100 3650 50  0001 C CNN
F 1 "GND" H 1105 3727 50  0000 C CNN
F 2 "" H 1100 3900 50  0001 C CNN
F 3 "" H 1100 3900 50  0001 C CNN
	1    1100 3900
	1    0    0    -1  
$EndComp
Wire Wire Line
	1100 3900 1400 3900
Wire Wire Line
	5500 900  5600 900 
Connection ~ 5600 900 
Wire Wire Line
	5200 1200 5600 1200
Wire Wire Line
	5600 1200 5600 1100
Wire Wire Line
	5600 900  5900 900 
Wire Wire Line
	5600 1100 5900 1100
Connection ~ 5600 1100
$Comp
L power:GND #PWR0104
U 1 1 5F9F981E
P 5200 1200
F 0 "#PWR0104" H 5200 950 50  0001 C CNN
F 1 "GND" H 5205 1027 50  0000 C CNN
F 2 "" H 5200 1200 50  0001 C CNN
F 3 "" H 5200 1200 50  0001 C CNN
	1    5200 1200
	1    0    0    -1  
$EndComp
Connection ~ 5200 1200
$Comp
L Device:C_Small C2
U 1 1 5F9F9B5C
P 4600 1000
F 0 "C2" H 4692 1046 50  0000 L CNN
F 1 "1nF" H 4692 955 50  0000 L CNN
F 2 "Capacitor_SMD:C_0402_1005Metric" H 4600 1000 50  0001 C CNN
F 3 "~" H 4600 1000 50  0001 C CNN
	1    4600 1000
	1    0    0    -1  
$EndComp
$Comp
L Device:C_Small C1
U 1 1 5F9FA4AB
P 4300 1000
F 0 "C1" H 4392 1046 50  0000 L CNN
F 1 "100nF" H 4392 955 50  0000 L CNN
F 2 "Capacitor_SMD:C_0402_1005Metric" H 4300 1000 50  0001 C CNN
F 3 "~" H 4300 1000 50  0001 C CNN
	1    4300 1000
	1    0    0    -1  
$EndComp
Connection ~ 4600 900 
Wire Wire Line
	4600 900  4500 900 
Wire Wire Line
	4300 1100 4600 1100
Wire Wire Line
	4600 900  4900 900 
Wire Wire Line
	4600 1100 4600 1200
Wire Wire Line
	4600 1200 5200 1200
Connection ~ 4600 1100
Connection ~ 5900 900 
Wire Wire Line
	3800 4300 3900 4300
Connection ~ 3900 4300
Wire Wire Line
	3900 4300 4000 4300
Connection ~ 4000 4300
Wire Wire Line
	4000 4300 4100 4300
Wire Wire Line
	5900 900  6100 900 
$Comp
L Connector:TestPoint TP2
U 1 1 5FA08C00
P 4500 900
F 0 "TP2" H 4558 1018 50  0000 L CNN
F 1 "TestPoint" H 4558 927 50  0001 L CNN
F 2 "TestPoint:TestPoint_Pad_D1.0mm" H 4700 900 50  0001 C CNN
F 3 "~" H 4700 900 50  0001 C CNN
	1    4500 900 
	1    0    0    -1  
$EndComp
Connection ~ 4500 900 
Wire Wire Line
	4500 900  4300 900 
Text Label 2100 3000 0    50   ~ 0
D-
Text Label 2100 3200 0    50   ~ 0
D+
Connection ~ 2000 3200
Connection ~ 2000 3000
$Comp
L Device:R_Small R3
U 1 1 5FA14575
P 2600 3200
F 0 "R3" V 2404 3200 50  0000 C CNN
F 1 "22" V 2495 3200 50  0000 C CNN
F 2 "Resistor_SMD:R_0402_1005Metric" H 2600 3200 50  0001 C CNN
F 3 "~" H 2600 3200 50  0001 C CNN
	1    2600 3200
	0    1    1    0   
$EndComp
$Comp
L Device:R_Small R4
U 1 1 5FA147E8
P 2300 3000
F 0 "R4" V 2104 3000 50  0000 C CNN
F 1 "22" V 2195 3000 50  0000 C CNN
F 2 "Resistor_SMD:R_0402_1005Metric" H 2300 3000 50  0001 C CNN
F 3 "~" H 2300 3000 50  0001 C CNN
	1    2300 3000
	0    1    1    0   
$EndComp
Wire Wire Line
	2000 3000 2200 3000
Wire Wire Line
	2000 3200 2500 3200
Text Label 2700 3200 0    50   ~ 0
USB_DP
Text Label 2800 3000 0    50   ~ 0
USB_DM
$Comp
L Device:R_Small R5
U 1 1 5FA1B9D3
P 2700 2700
F 0 "R5" H 2641 2654 50  0000 R CNN
F 1 "1.5k" H 2641 2745 50  0000 R CNN
F 2 "Resistor_SMD:R_0402_1005Metric" H 2700 2700 50  0001 C CNN
F 3 "~" H 2700 2700 50  0001 C CNN
	1    2700 2700
	-1   0    0    1   
$EndComp
Wire Wire Line
	2400 2700 2400 2600
Wire Wire Line
	2200 2600 2000 2600
Connection ~ 2400 2700
Wire Wire Line
	2200 2700 2400 2700
$Comp
L power:VBUS #PWR0108
U 1 1 5F9327A3
P 2100 2400
F 0 "#PWR0108" H 2100 2250 50  0001 C CNN
F 1 "VBUS" H 2115 2573 50  0000 C CNN
F 2 "" H 2100 2400 50  0001 C CNN
F 3 "" H 2100 2400 50  0001 C CNN
	1    2100 2400
	1    0    0    -1  
$EndComp
$Comp
L power:VBUS #PWR0109
U 1 1 5F933156
P 1500 900
F 0 "#PWR0109" H 1500 750 50  0001 C CNN
F 1 "VBUS" H 1515 1073 50  0000 C CNN
F 2 "" H 1500 900 50  0001 C CNN
F 3 "" H 1500 900 50  0001 C CNN
	1    1500 900 
	1    0    0    -1  
$EndComp
$Comp
L power:VBUS #PWR0110
U 1 1 5F933A1D
P 3400 1000
F 0 "#PWR0110" H 3400 850 50  0001 C CNN
F 1 "VBUS" H 3415 1173 50  0000 C CNN
F 2 "" H 3400 1000 50  0001 C CNN
F 3 "" H 3400 1000 50  0001 C CNN
	1    3400 1000
	1    0    0    -1  
$EndComp
$Comp
L power:VBUS #PWR0111
U 1 1 5F935646
P 4300 900
F 0 "#PWR0111" H 4300 750 50  0001 C CNN
F 1 "VBUS" H 4315 1073 50  0000 C CNN
F 2 "" H 4300 900 50  0001 C CNN
F 3 "" H 4300 900 50  0001 C CNN
	1    4300 900 
	1    0    0    -1  
$EndComp
Connection ~ 4300 900 
$Comp
L Device:D_Schottky_Small D1
U 1 1 5F93833E
P 3100 1000
F 0 "D1" H 3100 793 50  0000 C CNN
F 1 "1N5817W" H 3100 884 50  0000 C CNN
F 2 "Diode_SMD:D_SOD-123" V 3100 1000 50  0001 C CNN
F 3 "~" V 3100 1000 50  0001 C CNN
	1    3100 1000
	-1   0    0    1   
$EndComp
Wire Wire Line
	3200 1000 3400 1000
Wire Wire Line
	4000 2700 3700 2700
Wire Wire Line
	3700 2900 4000 2900
Wire Wire Line
	2400 3000 3100 3000
Wire Wire Line
	2700 2800 2700 3200
Wire Wire Line
	7500 1700 7500 1900
Wire Wire Line
	7500 1900 7150 1900
Wire Wire Line
	7150 1900 7150 1600
$Comp
L power:GND #PWR03
U 1 1 5F98A4EB
P 8700 1400
F 0 "#PWR03" H 8700 1150 50  0001 C CNN
F 1 "GND" H 8705 1227 50  0000 C CNN
F 2 "" H 8700 1400 50  0001 C CNN
F 3 "" H 8700 1400 50  0001 C CNN
	1    8700 1400
	1    0    0    -1  
$EndComp
$Comp
L Device:C_Small C5
U 1 1 5F98C35F
P 7800 1200
F 0 "C5" H 7892 1246 50  0000 L CNN
F 1 "4.1p" H 7892 1155 50  0000 L CNN
F 2 "Capacitor_SMD:C_0402_1005Metric" H 7800 1200 50  0001 C CNN
F 3 "~" H 7800 1200 50  0001 C CNN
	1    7800 1200
	1    0    0    -1  
$EndComp
$Comp
L Device:C_Small C6
U 1 1 5F98CF82
P 8200 1200
F 0 "C6" H 8292 1246 50  0000 L CNN
F 1 "4.1p" H 8292 1155 50  0000 L CNN
F 2 "Capacitor_SMD:C_0402_1005Metric" H 8200 1200 50  0001 C CNN
F 3 "~" H 8200 1200 50  0001 C CNN
	1    8200 1200
	1    0    0    -1  
$EndComp
$Comp
L Device:L_Small L1
U 1 1 5F98E1F3
P 8000 1100
F 0 "L1" V 8185 1100 50  0000 C CNN
F 1 "2nH" V 8094 1100 50  0000 C CNN
F 2 "Inductor_SMD:L_0402_1005Metric" H 8000 1100 50  0001 C CNN
F 3 "~" H 8000 1100 50  0001 C CNN
	1    8000 1100
	0    -1   -1   0   
$EndComp
Wire Wire Line
	7800 1100 7900 1100
Wire Wire Line
	8100 1100 8200 1100
Wire Wire Line
	8200 1300 7800 1300
$Comp
L power:GND #PWR01
U 1 1 5F99357B
P 8200 1300
F 0 "#PWR01" H 8200 1050 50  0001 C CNN
F 1 "GND" H 8205 1127 50  0000 C CNN
F 2 "" H 8200 1300 50  0001 C CNN
F 3 "" H 8200 1300 50  0001 C CNN
	1    8200 1300
	1    0    0    -1  
$EndComp
Connection ~ 8200 1300
Connection ~ 8200 1100
Wire Wire Line
	8500 1100 8500 1300
Wire Wire Line
	8500 1300 8700 1300
Wire Wire Line
	8200 1100 8500 1100
$Comp
L Device:R_Small R6
U 1 1 5F99A8AC
P 10400 2200
F 0 "R6" H 10459 2246 50  0000 L CNN
F 1 "10k" H 10459 2155 50  0000 L CNN
F 2 "Resistor_SMD:R_0402_1005Metric" H 10400 2200 50  0001 C CNN
F 3 "~" H 10400 2200 50  0001 C CNN
	1    10400 2200
	1    0    0    -1  
$EndComp
Wire Wire Line
	10000 2100 10400 2100
$Comp
L power:GND #PWR04
U 1 1 5F99C67F
P 10400 2300
F 0 "#PWR04" H 10400 2050 50  0001 C CNN
F 1 "GND" H 10405 2127 50  0000 C CNN
F 2 "" H 10400 2300 50  0001 C CNN
F 3 "" H 10400 2300 50  0001 C CNN
	1    10400 2300
	1    0    0    -1  
$EndComp
$Comp
L Device:C_Small C7
U 1 1 5F99ECA1
P 7600 1800
F 0 "C7" H 7692 1846 50  0000 L CNN
F 1 "12p" H 7692 1755 50  0000 L CNN
F 2 "Capacitor_SMD:C_0402_1005Metric" H 7600 1800 50  0001 C CNN
F 3 "~" H 7600 1800 50  0001 C CNN
	1    7600 1800
	1    0    0    -1  
$EndComp
Wire Wire Line
	7600 1700 7500 1700
$Comp
L Device:C_Small C8
U 1 1 5F99F79C
P 7900 1900
F 0 "C8" H 7992 1946 50  0000 L CNN
F 1 "12p" H 7992 1855 50  0000 L CNN
F 2 "Capacitor_SMD:C_0402_1005Metric" H 7900 1900 50  0001 C CNN
F 3 "~" H 7900 1900 50  0001 C CNN
	1    7900 1900
	1    0    0    -1  
$EndComp
Wire Wire Line
	7900 1600 7900 1800
Connection ~ 7900 1600
Wire Wire Line
	7900 1600 7450 1600
Wire Wire Line
	7600 2000 7600 1900
Wire Wire Line
	7600 2000 7900 2000
$Comp
L power:GND #PWR02
U 1 1 5F9A3DFD
P 7600 2000
F 0 "#PWR02" H 7600 1750 50  0001 C CNN
F 1 "GND" H 7605 1827 50  0000 C CNN
F 2 "" H 7600 2000 50  0001 C CNN
F 3 "" H 7600 2000 50  0001 C CNN
	1    7600 2000
	1    0    0    -1  
$EndComp
Connection ~ 7600 2000
$Comp
L Device:C_Small C10
U 1 1 5F9AEE71
P 8500 2200
F 0 "C10" V 8700 2200 50  0000 C CNN
F 1 "2u2" V 8600 2200 50  0000 C CNN
F 2 "Capacitor_SMD:C_0603_1608Metric" H 8500 2200 50  0001 C CNN
F 3 "~" H 8500 2200 50  0001 C CNN
	1    8500 2200
	0    1    1    0   
$EndComp
$Comp
L Device:C_Small C9
U 1 1 5F9B39DE
P 8200 2100
F 0 "C9" H 8292 2146 50  0000 L CNN
F 1 "10uF" H 8292 2055 50  0000 L CNN
F 2 "Capacitor_SMD:C_0603_1608Metric" H 8200 2100 50  0001 C CNN
F 3 "~" H 8200 2100 50  0001 C CNN
	1    8200 2100
	1    0    0    -1  
$EndComp
$Comp
L Device:L_Small L2
U 1 1 5F9B3EE5
P 8400 2000
F 0 "L2" V 8585 2000 50  0000 C CNN
F 1 "10uH" V 8494 2000 50  0000 C CNN
F 2 "Inductor_SMD:L_0603_1608Metric" H 8400 2000 50  0001 C CNN
F 3 "~" H 8400 2000 50  0001 C CNN
	1    8400 2000
	0    -1   -1   0   
$EndComp
Wire Wire Line
	8300 2000 8300 2100
Wire Wire Line
	8300 2100 8700 2100
Wire Wire Line
	8200 2000 8300 2000
Connection ~ 8300 2000
$Comp
L power:GND #PWR05
U 1 1 5F9B7E50
P 8200 2200
F 0 "#PWR05" H 8200 1950 50  0001 C CNN
F 1 "GND" H 8205 2027 50  0000 C CNN
F 2 "" H 8200 2200 50  0001 C CNN
F 3 "" H 8200 2200 50  0001 C CNN
	1    8200 2200
	1    0    0    -1  
$EndComp
Wire Wire Line
	8500 2000 8700 2000
Wire Wire Line
	8700 2700 8400 2700
Connection ~ 8200 2200
Wire Wire Line
	8200 2200 8400 2200
Wire Wire Line
	8600 2200 8700 2200
Wire Wire Line
	7900 1600 8700 1600
$Comp
L Connector:TestPoint TP8
U 1 1 5F9DA327
P 8400 2600
F 0 "TP8" H 8458 2718 50  0000 L CNN
F 1 "TestPoint" H 8458 2627 50  0001 L CNN
F 2 "TestPoint:TestPoint_Pad_D1.0mm" H 8600 2600 50  0001 C CNN
F 3 "~" H 8600 2600 50  0001 C CNN
	1    8400 2600
	1    0    0    -1  
$EndComp
$Comp
L Connector:TestPoint TP9
U 1 1 5F9DAE33
P 8400 2700
F 0 "TP9" H 8458 2818 50  0000 L CNN
F 1 "TestPoint" H 8458 2727 50  0001 L CNN
F 2 "TestPoint:TestPoint_Pad_D1.0mm" H 8600 2700 50  0001 C CNN
F 3 "~" H 8600 2700 50  0001 C CNN
	1    8400 2700
	-1   0    0    1   
$EndComp
Wire Wire Line
	8400 2600 8700 2600
$Comp
L alonzo:FR8016HA e1
U 1 1 5F951096
P 9300 2100
F 0 "e1" H 9350 3265 50  0000 C CNN
F 1 "FR8016HA" H 9350 3174 50  0000 C CNN
F 2 "Package_DFN_QFN:QFN-32-1EP_4x4mm_P0.4mm_EP2.65x2.65mm" H 9300 2100 50  0001 C CNN
F 3 "" H 9300 2100 50  0001 C CNN
	1    9300 2100
	1    0    0    -1  
$EndComp
$Comp
L power:GND #PWR022
U 1 1 5F9E41BE
P 10800 2200
F 0 "#PWR022" H 10800 1950 50  0001 C CNN
F 1 "GND" H 10805 2027 50  0000 C CNN
F 2 "" H 10800 2200 50  0001 C CNN
F 3 "" H 10800 2200 50  0001 C CNN
	1    10800 2200
	1    0    0    -1  
$EndComp
Wire Wire Line
	10000 2000 10800 2000
Wire Wire Line
	8400 2200 8400 2300
Wire Wire Line
	8400 2300 8700 2300
Connection ~ 8400 2200
$Comp
L power:GND #PWR014
U 1 1 5F9E973C
P 4500 3300
F 0 "#PWR014" H 4500 3050 50  0001 C CNN
F 1 "GND" H 4505 3127 50  0000 C CNN
F 2 "" H 4500 3300 50  0001 C CNN
F 3 "" H 4500 3300 50  0001 C CNN
	1    4500 3300
	1    0    0    -1  
$EndComp
$Comp
L power:GND #PWR010
U 1 1 5F9EBAF8
P 3700 7400
F 0 "#PWR010" H 3700 7150 50  0001 C CNN
F 1 "GND" H 3705 7227 50  0000 C CNN
F 2 "" H 3700 7400 50  0001 C CNN
F 3 "" H 3700 7400 50  0001 C CNN
	1    3700 7400
	1    0    0    -1  
$EndComp
Wire Wire Line
	3700 7400 3800 7400
Connection ~ 3700 7400
Connection ~ 3800 7400
Wire Wire Line
	3800 7400 3900 7400
Connection ~ 3900 7400
Wire Wire Line
	3900 7400 4000 7400
Connection ~ 4000 7400
Wire Wire Line
	4000 7400 4100 7400
Wire Wire Line
	2500 5100 2500 5000
Wire Wire Line
	2200 5000 2200 5300
Wire Wire Line
	2200 5300 2500 5300
Wire Wire Line
	2500 5300 2500 5200
Wire Wire Line
	2500 5200 2600 5200
$Comp
L Device:C_Small C13
U 1 1 5FA2F453
P 2700 5000
F 0 "C13" H 2792 5046 50  0000 L CNN
F 1 "12p" H 2792 4955 50  0000 L CNN
F 2 "Capacitor_SMD:C_0402_1005Metric" H 2700 5000 50  0001 C CNN
F 3 "~" H 2700 5000 50  0001 C CNN
	1    2700 5000
	1    0    0    -1  
$EndComp
Connection ~ 2700 5100
Wire Wire Line
	2700 5100 2500 5100
$Comp
L Device:C_Small C12
U 1 1 5FA30A42
P 2600 5300
F 0 "C12" H 2692 5346 50  0000 L CNN
F 1 "12p" H 2692 5255 50  0000 L CNN
F 2 "Capacitor_SMD:C_0402_1005Metric" H 2600 5300 50  0001 C CNN
F 3 "~" H 2600 5300 50  0001 C CNN
	1    2600 5300
	1    0    0    -1  
$EndComp
Connection ~ 2600 5200
$Comp
L power:GND #PWR09
U 1 1 5FA30EC8
P 2700 4900
F 0 "#PWR09" H 2700 4650 50  0001 C CNN
F 1 "GND" H 2600 4800 50  0000 C CNN
F 2 "" H 2700 4900 50  0001 C CNN
F 3 "" H 2700 4900 50  0001 C CNN
	1    2700 4900
	-1   0    0    1   
$EndComp
$Comp
L power:GND #PWR08
U 1 1 5FA316A7
P 2600 5400
F 0 "#PWR08" H 2600 5150 50  0001 C CNN
F 1 "GND" H 2605 5227 50  0000 C CNN
F 2 "" H 2600 5400 50  0001 C CNN
F 3 "" H 2600 5400 50  0001 C CNN
	1    2600 5400
	1    0    0    -1  
$EndComp
$Comp
L Device:C_Small C11
U 1 1 5FA32C39
P 2800 4500
F 0 "C11" H 2892 4546 50  0000 L CNN
F 1 "10nF" H 2892 4455 50  0000 L CNN
F 2 "Capacitor_SMD:C_0402_1005Metric" H 2800 4500 50  0001 C CNN
F 3 "~" H 2800 4500 50  0001 C CNN
	1    2800 4500
	0    1    1    0   
$EndComp
$Comp
L power:GND #PWR07
U 1 1 5FA3962C
P 2700 4500
F 0 "#PWR07" H 2700 4250 50  0001 C CNN
F 1 "GND" H 2705 4327 50  0000 C CNN
F 2 "" H 2700 4500 50  0001 C CNN
F 3 "" H 2700 4500 50  0001 C CNN
	1    2700 4500
	0    1    1    0   
$EndComp
$Comp
L Switch:SW_MEC_5E SW1
U 1 1 5FA3F6E8
P 5800 3600
F 0 "SW1" H 5800 3985 50  0000 C CNN
F 1 "SW_MEC_5E" H 5800 3894 50  0000 C CNN
F 2 "footprints:button_SPST_3x4x2.5" H 5800 3900 50  0001 C CNN
F 3 "http://www.apem.com/int/index.php?controller=attachment&id_attachment=1371" H 5800 3900 50  0001 C CNN
	1    5800 3600
	1    0    0    -1  
$EndComp
Text Label 2900 4500 0    50   ~ 0
NRST
Wire Wire Line
	2900 4500 3200 4500
Text Label 6900 3500 0    50   ~ 0
NRST
Text Label 2900 4700 0    50   ~ 0
BOOT0
Text Label 2400 6000 0    50   ~ 0
BOOT1
$Comp
L Device:R_Small R7
U 1 1 5FA53CA4
P 2400 6100
F 0 "R7" H 2341 6054 50  0000 R CNN
F 1 "100k" H 2341 6145 50  0000 R CNN
F 2 "Resistor_SMD:R_0402_1005Metric" H 2400 6100 50  0001 C CNN
F 3 "~" H 2400 6100 50  0001 C CNN
	1    2400 6100
	-1   0    0    1   
$EndComp
$Comp
L power:GND #PWR06
U 1 1 5FA54F2A
P 2400 6200
F 0 "#PWR06" H 2400 5950 50  0001 C CNN
F 1 "GND" H 2405 6027 50  0000 C CNN
F 2 "" H 2400 6200 50  0001 C CNN
F 3 "" H 2400 6200 50  0001 C CNN
	1    2400 6200
	1    0    0    -1  
$EndComp
$Comp
L Switch:SW_MEC_5E SW2
U 1 1 5FA569B4
P 6700 3600
F 0 "SW2" H 6700 3985 50  0000 C CNN
F 1 "SW_MEC_5E" H 6700 3894 50  0000 C CNN
F 2 "footprints:button_SPST_3x4x2.5" H 6700 3900 50  0001 C CNN
F 3 "http://www.apem.com/int/index.php?controller=attachment&id_attachment=1371" H 6700 3900 50  0001 C CNN
	1    6700 3600
	1    0    0    -1  
$EndComp
Wire Wire Line
	6300 3500 6500 3500
$Comp
L Device:R_Small R8
U 1 1 5FA5CCEF
P 2000 4700
F 0 "R8" H 1941 4654 50  0000 R CNN
F 1 "100k" H 1941 4745 50  0000 R CNN
F 2 "Resistor_SMD:R_0402_1005Metric" H 2000 4700 50  0001 C CNN
F 3 "~" H 2000 4700 50  0001 C CNN
	1    2000 4700
	0    -1   -1   0   
$EndComp
$Comp
L power:GND #PWR015
U 1 1 5FA5F9B9
P 1900 4700
F 0 "#PWR015" H 1900 4450 50  0001 C CNN
F 1 "GND" H 1905 4527 50  0000 C CNN
F 2 "" H 1900 4700 50  0001 C CNN
F 3 "" H 1900 4700 50  0001 C CNN
	1    1900 4700
	0    1    1    0   
$EndComp
Text Label 4500 6200 0    50   ~ 0
SPI1_SCK
Text Label 4500 6400 0    50   ~ 0
SPI1_MOSI
Wire Wire Line
	2800 6200 3200 6200
Wire Wire Line
	2400 6000 3200 6000
Text Label 4500 6600 0    50   ~ 0
USART1_TX
Text Label 4500 6700 0    50   ~ 0
USART1_RX
Text Label 4500 6900 0    50   ~ 0
USB_DP
$Comp
L power:GND #PWR020
U 1 1 5FAC7BB4
P 8900 5600
F 0 "#PWR020" H 8900 5350 50  0001 C CNN
F 1 "GND" H 8905 5427 50  0000 C CNN
F 2 "" H 8900 5600 50  0001 C CNN
F 3 "" H 8900 5600 50  0001 C CNN
	1    8900 5600
	0    1    1    0   
$EndComp
Text Label 4500 6100 0    50   ~ 0
SPI1_NSS
Wire Wire Line
	8900 5600 9300 5600
$Comp
L Connector:TestPoint TP10
U 1 1 5FB1C8EE
P 7700 2300
F 0 "TP10" H 7758 2418 50  0000 L CNN
F 1 "TestPoint" H 7758 2327 50  0001 L CNN
F 2 "TestPoint:TestPoint_Pad_D1.0mm" H 7900 2300 50  0001 C CNN
F 3 "~" H 7900 2300 50  0001 C CNN
	1    7700 2300
	1    0    0    -1  
$EndComp
$Comp
L Connector:TestPoint TP3
U 1 1 5FB25808
P 3200 2200
F 0 "TP3" H 3258 2318 50  0000 L CNN
F 1 "TestPoint" H 3258 2227 50  0000 L CNN
F 2 "TestPoint:TestPoint_Pad_D1.0mm" H 3400 2200 50  0001 C CNN
F 3 "~" H 3400 2200 50  0001 C CNN
	1    3200 2200
	-1   0    0    1   
$EndComp
$Comp
L Connector:TestPoint TP5
U 1 1 5FB2C57A
P 3200 2500
F 0 "TP5" H 3258 2618 50  0000 L CNN
F 1 "TestPoint" H 3258 2527 50  0000 L CNN
F 2 "TestPoint:TestPoint_Pad_D1.0mm" H 3400 2500 50  0001 C CNN
F 3 "~" H 3400 2500 50  0001 C CNN
	1    3200 2500
	-1   0    0    1   
$EndComp
$Comp
L Device:R_Small R9
U 1 1 5FB462E5
P 5500 7000
F 0 "R9" H 5559 7046 50  0000 L CNN
F 1 "1k" H 5559 6955 50  0000 L CNN
F 2 "Resistor_SMD:R_0402_1005Metric" H 5500 7000 50  0001 C CNN
F 3 "~" H 5500 7000 50  0001 C CNN
	1    5500 7000
	1    0    0    -1  
$EndComp
Text Label 5400 7300 0    50   ~ 0
LED_0
Text Label 5700 7300 0    50   ~ 0
LED_1
$Comp
L Device:R_Small R11
U 1 1 5FB5C4E8
P 5900 7000
F 0 "R11" H 5959 7046 50  0000 L CNN
F 1 "1k" H 5959 6955 50  0000 L CNN
F 2 "Resistor_SMD:R_0402_1005Metric" H 5900 7000 50  0001 C CNN
F 3 "~" H 5900 7000 50  0001 C CNN
	1    5900 7000
	1    0    0    -1  
$EndComp
Text Label 5900 7200 0    50   ~ 0
LED_2
$Comp
L Switch:SW_MEC_5E SW3
U 1 1 5FB6F8C9
P 7600 3600
F 0 "SW3" H 7600 3985 50  0000 C CNN
F 1 "SW_MEC_5E" H 7600 3894 50  0000 C CNN
F 2 "footprints:button_SPST_3x4x2.5" H 7600 3900 50  0001 C CNN
F 3 "http://www.apem.com/int/index.php?controller=attachment&id_attachment=1371" H 7600 3900 50  0001 C CNN
	1    7600 3600
	1    0    0    -1  
$EndComp
Text Label 6000 3500 0    50   ~ 0
BOOT0
Wire Wire Line
	5400 3500 5600 3500
Text Label 8000 3600 0    50   ~ 0
BTN_0
Wire Wire Line
	7800 3500 7900 3500
$Comp
L Device:R_Small R14
U 1 1 5FB98895
P 7900 3400
F 0 "R14" H 7959 3446 50  0000 L CNN
F 1 "100k" H 7959 3355 50  0000 L CNN
F 2 "Resistor_SMD:R_0402_1005Metric" H 7900 3400 50  0001 C CNN
F 3 "~" H 7900 3400 50  0001 C CNN
	1    7900 3400
	1    0    0    -1  
$EndComp
Connection ~ 7900 3500
Wire Wire Line
	7900 3500 8000 3500
Wire Wire Line
	8000 3500 8000 3600
$Comp
L power:GND #PWR025
U 1 1 5FBA20EA
P 7200 3500
F 0 "#PWR025" H 7200 3250 50  0001 C CNN
F 1 "GND" H 7205 3327 50  0000 C CNN
F 2 "" H 7200 3500 50  0001 C CNN
F 3 "" H 7200 3500 50  0001 C CNN
	1    7200 3500
	1    0    0    -1  
$EndComp
Wire Wire Line
	7200 3500 7400 3500
Text Label 5000 2700 0    50   ~ 0
USART1_TX
Text Label 5000 2900 0    50   ~ 0
USART1_RX
Text Label 900  1100 0    50   ~ 0
CHG_EN
$Comp
L Device:R_Small R12
U 1 1 5FBBEA6B
P 1300 1000
F 0 "R12" H 1241 954 50  0000 R CNN
F 1 "10k" H 1241 1045 50  0000 R CNN
F 2 "Resistor_SMD:R_0402_1005Metric" H 1300 1000 50  0001 C CNN
F 3 "~" H 1300 1000 50  0001 C CNN
	1    1300 1000
	-1   0    0    1   
$EndComp
Wire Wire Line
	1300 1100 1500 1100
Wire Wire Line
	1300 900  1500 900 
Wire Wire Line
	1500 1000 1500 900 
Connection ~ 1500 900 
Wire Wire Line
	900  1100 1300 1100
Connection ~ 1300 1100
$Comp
L Connector:TestPoint TP12
U 1 1 5FBE8EEF
P 10200 2700
F 0 "TP12" H 10258 2818 50  0000 L CNN
F 1 "TestPoint" H 10258 2727 50  0001 L CNN
F 2 "TestPoint:TestPoint_Pad_D1.0mm" H 10400 2700 50  0001 C CNN
F 3 "~" H 10400 2700 50  0001 C CNN
	1    10200 2700
	1    0    0    -1  
$EndComp
$Comp
L Connector:TestPoint TP11
U 1 1 5FBE946C
P 10100 2600
F 0 "TP11" H 10158 2718 50  0000 L CNN
F 1 "TestPoint" H 10158 2627 50  0001 L CNN
F 2 "TestPoint:TestPoint_Pad_D1.0mm" H 10300 2600 50  0001 C CNN
F 3 "~" H 10300 2600 50  0001 C CNN
	1    10100 2600
	1    0    0    -1  
$EndComp
Wire Wire Line
	10000 2600 10100 2600
$Comp
L power:GND #PWR023
U 1 1 5FBF3EA8
P 1500 1500
F 0 "#PWR023" H 1500 1250 50  0001 C CNN
F 1 "GND" H 1505 1327 50  0000 C CNN
F 2 "" H 1500 1500 50  0001 C CNN
F 3 "" H 1500 1500 50  0001 C CNN
	1    1500 1500
	1    0    0    -1  
$EndComp
$Comp
L Device:R_Small R13
U 1 1 5FBF7859
P 2600 1600
F 0 "R13" H 2541 1554 50  0000 R CNN
F 1 "3k3" H 2541 1645 50  0000 R CNN
F 2 "Resistor_SMD:R_0402_1005Metric" H 2600 1600 50  0001 C CNN
F 3 "~" H 2600 1600 50  0001 C CNN
	1    2600 1600
	-1   0    0    1   
$EndComp
$Comp
L power:GND #PWR024
U 1 1 5FBF8749
P 2600 1700
F 0 "#PWR024" H 2600 1450 50  0001 C CNN
F 1 "GND" H 2605 1527 50  0000 C CNN
F 2 "" H 2600 1700 50  0001 C CNN
F 3 "" H 2600 1700 50  0001 C CNN
	1    2600 1700
	1    0    0    -1  
$EndComp
Text Notes 1600 2000 0    80   ~ 0
Charging current = 1200/R13 (A) = 0.36A
Wire Wire Line
	2600 1400 2900 1400
Wire Wire Line
	2900 1400 2900 1700
Wire Wire Line
	2900 1700 2600 1700
Connection ~ 2600 1700
$Comp
L power:GND #PWR0112
U 1 1 5FC0DEC1
P 10200 6100
F 0 "#PWR0112" H 10200 5850 50  0001 C CNN
F 1 "GND" H 10205 5927 50  0000 C CNN
F 2 "" H 10200 6100 50  0001 C CNN
F 3 "" H 10200 6100 50  0001 C CNN
	1    10200 6100
	1    0    0    -1  
$EndComp
Wire Wire Line
	10000 2700 10200 2700
$Comp
L alonzo:Micro_SD_Card_with_detect J3
U 1 1 5FDA79C8
P 10200 5300
F 0 "J3" H 9500 6000 50  0000 L CNN
F 1 "Micro_SD_Card_with_detect" H 9700 6000 50  0000 L CNN
F 2 "footprints:microSD_socket_with_detect" H 11350 5600 50  0001 C CNN
F 3 "" H 10200 5300 50  0001 C CNN
	1    10200 5300
	1    0    0    -1  
$EndComp
Wire Wire Line
	10200 6100 10300 6100
Connection ~ 10200 6100
Connection ~ 10300 6100
Wire Wire Line
	10300 6100 10400 6100
Connection ~ 10400 6100
Wire Wire Line
	10400 6100 10500 6100
$Comp
L power:GND #PWR028
U 1 1 5FE5BDB4
P 3300 3600
F 0 "#PWR028" H 3300 3350 50  0001 C CNN
F 1 "GND" H 3305 3427 50  0000 C CNN
F 2 "" H 3300 3600 50  0001 C CNN
F 3 "" H 3300 3600 50  0001 C CNN
	1    3300 3600
	1    0    0    -1  
$EndComp
$Comp
L Device:C_Small C15
U 1 1 5FE5C97D
P 3300 3500
F 0 "C15" H 3392 3546 50  0000 L CNN
F 1 "100nF" H 3392 3455 50  0000 L CNN
F 2 "Capacitor_SMD:C_0402_1005Metric" H 3300 3500 50  0001 C CNN
F 3 "~" H 3300 3500 50  0001 C CNN
	1    3300 3500
	1    0    0    -1  
$EndComp
$Comp
L Device:C_Small C16
U 1 1 5FE653F2
P 3600 3500
F 0 "C16" H 3692 3546 50  0000 L CNN
F 1 "100nF" H 3692 3455 50  0000 L CNN
F 2 "Capacitor_SMD:C_0402_1005Metric" H 3600 3500 50  0001 C CNN
F 3 "~" H 3600 3500 50  0001 C CNN
	1    3600 3500
	1    0    0    -1  
$EndComp
$Comp
L Device:C_Small C17
U 1 1 5FE658AE
P 3900 3500
F 0 "C17" H 3992 3546 50  0000 L CNN
F 1 "100nF" H 3992 3455 50  0000 L CNN
F 2 "Capacitor_SMD:C_0402_1005Metric" H 3900 3500 50  0001 C CNN
F 3 "~" H 3900 3500 50  0001 C CNN
	1    3900 3500
	1    0    0    -1  
$EndComp
Wire Wire Line
	3300 3400 3600 3400
Connection ~ 3600 3400
Wire Wire Line
	3600 3400 3900 3400
Wire Wire Line
	3900 3600 3600 3600
Connection ~ 3300 3600
Connection ~ 3600 3600
Wire Wire Line
	3600 3600 3300 3600
$Comp
L Connector:TestPoint TP13
U 1 1 5F9ACD4B
P 10300 2900
F 0 "TP13" H 10358 3018 50  0000 L CNN
F 1 "TestPoint" H 10358 2927 50  0001 L CNN
F 2 "TestPoint:TestPoint_Pad_D1.0mm" H 10500 2900 50  0001 C CNN
F 3 "~" H 10500 2900 50  0001 C CNN
	1    10300 2900
	1    0    0    -1  
$EndComp
$Comp
L power:GND #PWR030
U 1 1 5F9ADA7D
P 10300 2900
F 0 "#PWR030" H 10300 2650 50  0001 C CNN
F 1 "GND" H 10305 2727 50  0000 C CNN
F 2 "" H 10300 2900 50  0001 C CNN
F 3 "" H 10300 2900 50  0001 C CNN
	1    10300 2900
	1    0    0    -1  
$EndComp
$Comp
L Connector:TestPoint TP7
U 1 1 5FAEFB62
P 8800 5500
F 0 "TP7" H 8858 5618 50  0000 L CNN
F 1 "TestPoint" H 8858 5527 50  0001 L CNN
F 2 "TestPoint:TestPoint_Pad_D1.0mm" H 9000 5500 50  0001 C CNN
F 3 "~" H 9000 5500 50  0001 C CNN
	1    8800 5500
	0    -1   -1   0   
$EndComp
$Comp
L Connector:TestPoint TP4
U 1 1 5FAEF336
P 8700 5700
F 0 "TP4" H 8758 5818 50  0000 L CNN
F 1 "TestPoint" H 8758 5727 50  0001 L CNN
F 2 "TestPoint:TestPoint_Pad_D1.0mm" H 8900 5700 50  0001 C CNN
F 3 "~" H 8900 5700 50  0001 C CNN
	1    8700 5700
	0    -1   -1   0   
$EndComp
$Comp
L Connector:TestPoint TP14
U 1 1 5F9CDA6A
P 8900 5100
F 0 "TP14" H 8958 5218 50  0000 L CNN
F 1 "TestPoint" H 8958 5127 50  0001 L CNN
F 2 "TestPoint:TestPoint_Pad_D1.0mm" H 9100 5100 50  0001 C CNN
F 3 "~" H 9100 5100 50  0001 C CNN
	1    8900 5100
	0    -1   -1   0   
$EndComp
$Comp
L Connector:Conn_01x16_Male J4
U 1 1 5FA7D774
P 1000 6300
F 0 "J4" H 800 7400 50  0000 C CNN
F 1 "Conn_01x16_Male" H 1100 7300 50  0000 C CNN
F 2 "Connector_PinHeader_2.54mm:PinHeader_1x16_P2.54mm_Vertical" H 1000 6300 50  0001 C CNN
F 3 "~" H 1000 6300 50  0001 C CNN
	1    1000 6300
	1    0    0    -1  
$EndComp
Text Label 4500 6800 0    50   ~ 0
USB_DM
Text Label 4500 7100 0    50   ~ 0
SWCLK
Text Label 4500 7000 0    50   ~ 0
SWDIO
Text Label 1200 5800 0    50   ~ 0
SWDIO
Text Label 1200 5900 0    50   ~ 0
SWCLK
Text Label 2800 6100 0    50   ~ 0
I2C2_SDA
Wire Wire Line
	2800 6100 3200 6100
Text Label 1200 6400 0    50   ~ 0
PB5
Text Label 1200 6600 0    50   ~ 0
PB6_TIM4_CH1
Text Label 1200 6800 0    50   ~ 0
PB8_TIM4_CH3
Text Label 4500 6000 0    50   ~ 0
USART2_RX
Text Label 3200 2500 0    50   ~ 0
D+
Text Label 3200 2200 0    50   ~ 0
D-
Text Label 3700 2700 0    50   ~ 0
D-
Text Label 3700 2900 0    50   ~ 0
D+
Wire Wire Line
	1200 5600 1300 5600
Text Label 1200 6000 0    50   ~ 0
USART1_TX
$Comp
L power:GND #PWR0114
U 1 1 5FCBF938
P 1400 5700
F 0 "#PWR0114" H 1400 5450 50  0001 C CNN
F 1 "GND" H 1405 5527 50  0000 C CNN
F 2 "" H 1400 5700 50  0001 C CNN
F 3 "" H 1400 5700 50  0001 C CNN
	1    1400 5700
	-1   0    0    1   
$EndComp
Wire Wire Line
	1200 5700 1400 5700
Text Label 1200 6100 0    50   ~ 0
USART1_RX
Text Label 2800 5900 0    50   ~ 0
CHG_EN
Wire Wire Line
	5600 3500 5600 3600
Connection ~ 5600 3500
Wire Wire Line
	6000 3500 6000 3600
Wire Wire Line
	6900 3500 6900 3600
Wire Wire Line
	6500 3500 6500 3600
Connection ~ 6500 3500
Wire Wire Line
	7400 3500 7400 3600
Connection ~ 7400 3500
Wire Wire Line
	7800 3500 7800 3600
Connection ~ 7800 3500
Text Label 1200 6900 0    50   ~ 0
PB9_TIM4_CH4
Text Label 2800 5800 0    50   ~ 0
PB0
Wire Wire Line
	2800 5800 3200 5800
Text Label 2800 6800 0    50   ~ 0
I2C2_SCL
Wire Wire Line
	2800 6800 3200 6800
Text Label 5900 5500 0    50   ~ 0
I2C2_SCL
$Comp
L Device:C_Small C18
U 1 1 5FDE815E
P 3100 4900
F 0 "C18" H 3192 4946 50  0000 L CNN
F 1 "4.7uF" H 3192 4855 50  0000 L CNN
F 2 "Capacitor_SMD:C_0603_1608Metric" H 3100 4900 50  0001 C CNN
F 3 "~" H 3100 4900 50  0001 C CNN
	1    3100 4900
	0    1    1    0   
$EndComp
Wire Wire Line
	2700 4900 3000 4900
Connection ~ 2700 4900
Wire Wire Line
	2700 5100 3200 5100
Wire Wire Line
	2600 5200 3200 5200
Wire Wire Line
	2100 4700 3200 4700
$Comp
L Device:LED_Small D5
U 1 1 5FE8C847
P 6400 6800
F 0 "D5" V 6446 6730 50  0000 R CNN
F 1 "LED_White" V 6355 6730 50  0000 R CNN
F 2 "LED_SMD:LED_0603_1608Metric" V 6400 6800 50  0001 C CNN
F 3 "~" V 6400 6800 50  0001 C CNN
	1    6400 6800
	0    -1   -1   0   
$EndComp
$Comp
L Device:R_Small R16
U 1 1 5FE8C853
P 6400 7000
F 0 "R16" H 6459 7046 50  0000 L CNN
F 1 "1k" H 6459 6955 50  0000 L CNN
F 2 "Resistor_SMD:R_0402_1005Metric" H 6400 7000 50  0001 C CNN
F 3 "~" H 6400 7000 50  0001 C CNN
	1    6400 7000
	1    0    0    -1  
$EndComp
Text Label 6400 7200 0    50   ~ 0
LED_3
Text Label 2900 5500 0    50   ~ 0
LED_1
Text Label 2900 5400 0    50   ~ 0
LED_2
Text Label 2900 5600 0    50   ~ 0
LED_0
Wire Wire Line
	2900 5400 3200 5400
Wire Wire Line
	3200 5500 2900 5500
Wire Wire Line
	2900 5600 3200 5600
Text Label 4500 5800 0    50   ~ 0
BTN_0
$Comp
L Device:C_Small C19
U 1 1 5F9B2D0C
P 3400 1100
F 0 "C19" H 3492 1146 50  0000 L CNN
F 1 "100nF" H 3492 1055 50  0000 L CNN
F 2 "Capacitor_SMD:C_0402_1005Metric" H 3400 1100 50  0001 C CNN
F 3 "~" H 3400 1100 50  0001 C CNN
	1    3400 1100
	1    0    0    -1  
$EndComp
$Comp
L power:GND #PWR012
U 1 1 5F9B4472
P 3400 1200
F 0 "#PWR012" H 3400 950 50  0001 C CNN
F 1 "GND" H 3405 1027 50  0000 C CNN
F 2 "" H 3400 1200 50  0001 C CNN
F 3 "" H 3400 1200 50  0001 C CNN
	1    3400 1200
	1    0    0    -1  
$EndComp
Wire Wire Line
	2800 1000 3000 1000
$Comp
L power:GND #PWR0107
U 1 1 5F929F81
P 2800 1300
F 0 "#PWR0107" H 2800 1050 50  0001 C CNN
F 1 "GND" H 2805 1127 50  0000 C CNN
F 2 "" H 2800 1300 50  0001 C CNN
F 3 "" H 2800 1300 50  0001 C CNN
	1    2800 1300
	1    0    0    -1  
$EndComp
$Comp
L Device:Battery_Cell BT1
U 1 1 5F9617A9
P 2800 1200
F 0 "BT1" H 2918 1296 50  0000 L CNN
F 1 "Battery_Cell" H 2918 1205 50  0000 L CNN
F 2 "footprints:2.0mm_connector_edge" V 2800 1260 50  0001 C CNN
F 3 "~" V 2800 1260 50  0001 C CNN
	1    2800 1200
	1    0    0    -1  
$EndComp
Connection ~ 3400 1000
Wire Wire Line
	2600 1000 2800 1000
Connection ~ 2800 1000
$Comp
L Device:Antenna_Shield AE1
U 1 1 5FA454BA
P 7300 900
F 0 "AE1" H 7220 939 50  0000 R CNN
F 1 "Antenna_Shield" H 7220 848 50  0000 R CNN
F 2 "footprints:Texas_SWRA117D_2.4GHz_Left" H 7300 1000 50  0001 C CNN
F 3 "~" H 7300 1000 50  0001 C CNN
	1    7300 900 
	-1   0    0    -1  
$EndComp
$Comp
L power:GND #PWR0116
U 1 1 5FA4872A
P 7200 1100
F 0 "#PWR0116" H 7200 850 50  0001 C CNN
F 1 "GND" H 7205 927 50  0000 C CNN
F 2 "" H 7200 1100 50  0001 C CNN
F 3 "" H 7200 1100 50  0001 C CNN
	1    7200 1100
	1    0    0    -1  
$EndComp
$Comp
L power:GND #PWR0117
U 1 1 5F9C035D
P 6300 3500
F 0 "#PWR0117" H 6300 3250 50  0001 C CNN
F 1 "GND" H 6305 3327 50  0000 C CNN
F 2 "" H 6300 3500 50  0001 C CNN
F 3 "" H 6300 3500 50  0001 C CNN
	1    6300 3500
	1    0    0    -1  
$EndComp
Text Label 7300 2700 0    50   ~ 0
VCC_BLE
Wire Wire Line
	8700 1800 8700 1900
Wire Wire Line
	8100 1800 8100 2300
Wire Wire Line
	8100 2300 7700 2300
Wire Wire Line
	7700 2300 7700 2700
Wire Wire Line
	8100 1800 8700 1800
Wire Wire Line
	7200 2700 7700 2700
Wire Wire Line
	7600 1700 8700 1700
Connection ~ 7600 1700
Connection ~ 7700 2300
$Comp
L Mechanical:MountingHole H1
U 1 1 5F9ECF1A
P 5800 1600
F 0 "H1" H 5900 1646 50  0000 L CNN
F 1 "MountingHole" H 5900 1555 50  0000 L CNN
F 2 "MountingHole:MountingHole_2.7mm_M2.5_Pad_Via" H 5800 1600 50  0001 C CNN
F 3 "~" H 5800 1600 50  0001 C CNN
	1    5800 1600
	1    0    0    -1  
$EndComp
$Comp
L Mechanical:MountingHole H2
U 1 1 5FA03149
P 5800 1800
F 0 "H2" H 5900 1846 50  0000 L CNN
F 1 "MountingHole" H 5900 1755 50  0000 L CNN
F 2 "MountingHole:MountingHole_2.7mm_M2.5_Pad_Via" H 5800 1800 50  0001 C CNN
F 3 "~" H 5800 1800 50  0001 C CNN
	1    5800 1800
	1    0    0    -1  
$EndComp
$Comp
L Mechanical:MountingHole H3
U 1 1 5FA03B86
P 5800 2000
F 0 "H3" H 5900 2046 50  0000 L CNN
F 1 "MountingHole" H 5900 1955 50  0000 L CNN
F 2 "footprints:MountingHole_2.7mm_M2.5_NPTH" H 5800 2000 50  0001 C CNN
F 3 "~" H 5800 2000 50  0001 C CNN
	1    5800 2000
	1    0    0    -1  
$EndComp
$Comp
L Mechanical:MountingHole H4
U 1 1 5FA0400C
P 5800 2200
F 0 "H4" H 5900 2246 50  0000 L CNN
F 1 "MountingHole" H 5900 2155 50  0000 L CNN
F 2 "footprints:MountingHole_2.7mm_M2.5_NPTH" H 5800 2200 50  0001 C CNN
F 3 "~" H 5800 2200 50  0001 C CNN
	1    5800 2200
	1    0    0    -1  
$EndComp
$Comp
L Transistor_FET:DMG2301L Q1
U 1 1 5FA995CC
P 7100 2500
F 0 "Q1" H 7304 2454 50  0000 L CNN
F 1 "2301" H 7304 2545 50  0000 L CNN
F 2 "Package_TO_SOT_SMD:SOT-23" H 7300 2425 50  0001 L CIN
F 3 "https://www.diodes.com/assets/Datasheets/DMG2301L.pdf" H 7100 2500 50  0001 L CNN
	1    7100 2500
	1    0    0    1   
$EndComp
Text Label 6600 2400 0    50   ~ 0
n_BT_ENABLE
Wire Wire Line
	7300 1100 7800 1100
Connection ~ 7800 1100
$Comp
L Device:C_Small C4
U 1 1 5F9F89BB
P 5900 1000
F 0 "C4" H 5992 1046 50  0000 L CNN
F 1 "1nF" H 5992 955 50  0000 L CNN
F 2 "Capacitor_SMD:C_0402_1005Metric" H 5900 1000 50  0001 C CNN
F 3 "~" H 5900 1000 50  0001 C CNN
	1    5900 1000
	1    0    0    -1  
$EndComp
$Comp
L Device:C_Small C3
U 1 1 5F9F8166
P 5600 1000
F 0 "C3" H 5692 1046 50  0000 L CNN
F 1 "100nF" H 5692 955 50  0000 L CNN
F 2 "Capacitor_SMD:C_0402_1005Metric" H 5600 1000 50  0001 C CNN
F 3 "~" H 5600 1000 50  0001 C CNN
	1    5600 1000
	1    0    0    -1  
$EndComp
$Comp
L Connector:USB_C_Receptacle_USB2.0 J2
U 1 1 5F91A994
P 1400 3000
F 0 "J2" H 1507 3867 50  0000 C CNN
F 1 "USB_2.0_Type-C_16pin" H 1507 3776 50  0000 C CNN
F 2 "footprints:USB_C_Receptacle_12pin_SMT" H 1550 3000 50  0001 C CNN
F 3 "https://www.usb.org/sites/default/files/documents/usb_type-c.zip" H 1550 3000 50  0001 C CNN
	1    1400 3000
	1    0    0    -1  
$EndComp
$Comp
L Device:C_Small C14
U 1 1 5F9E3AF1
P 10800 2100
F 0 "C14" H 10892 2146 50  0000 L CNN
F 1 "100nF" H 10892 2055 50  0000 L CNN
F 2 "Capacitor_SMD:C_0402_1005Metric" H 10800 2100 50  0001 C CNN
F 3 "~" H 10800 2100 50  0001 C CNN
	1    10800 2100
	1    0    0    -1  
$EndComp
$Comp
L Connector:TestPoint TP15
U 1 1 5FC0AAF6
P 1000 7500
F 0 "TP15" H 1058 7618 50  0000 L CNN
F 1 "TestPoint" H 1058 7527 50  0001 L CNN
F 2 "TestPoint:TestPoint_Pad_D1.0mm" H 1200 7500 50  0001 C CNN
F 3 "~" H 1200 7500 50  0001 C CNN
	1    1000 7500
	1    0    0    -1  
$EndComp
$Comp
L Connector:TestPoint TP16
U 1 1 5FC0CD0B
P 1300 7500
F 0 "TP16" H 1358 7618 50  0000 L CNN
F 1 "TestPoint" H 1358 7527 50  0001 L CNN
F 2 "TestPoint:TestPoint_Pad_D1.0mm" H 1500 7500 50  0001 C CNN
F 3 "~" H 1500 7500 50  0001 C CNN
	1    1300 7500
	1    0    0    -1  
$EndComp
Text Label 1300 7500 0    50   ~ 0
SWDIO
Text Label 1000 7500 0    50   ~ 0
SWCLK
$Comp
L Mechanical:MountingHole H5
U 1 1 5FC81E49
P 8700 4000
F 0 "H5" H 8800 4046 50  0000 L CNN
F 1 "LOGO" H 8800 3955 50  0000 L CNN
F 2 "footprint:logo_202011_4x4mm" H 8700 4000 50  0001 C CNN
F 3 "~" H 8700 4000 50  0001 C CNN
	1    8700 4000
	1    0    0    -1  
$EndComp
$Comp
L Connector:TestPoint TP17
U 1 1 5FAE9980
P 1600 7500
F 0 "TP17" H 1658 7618 50  0000 L CNN
F 1 "TestPoint" H 1658 7527 50  0001 L CNN
F 2 "TestPoint:TestPoint_Pad_D1.0mm" H 1800 7500 50  0001 C CNN
F 3 "~" H 1800 7500 50  0001 C CNN
	1    1600 7500
	1    0    0    -1  
$EndComp
$Comp
L power:GND #PWR011
U 1 1 5FAEAA2E
P 1600 7500
F 0 "#PWR011" H 1600 7250 50  0001 C CNN
F 1 "GND" H 1605 7327 50  0000 C CNN
F 2 "" H 1600 7500 50  0001 C CNN
F 3 "" H 1600 7500 50  0001 C CNN
	1    1600 7500
	1    0    0    -1  
$EndComp
Text Label 8900 5500 0    50   ~ 0
SPI1_SCK
Text Label 8900 5100 0    50   ~ 0
SPI1_NSS
Wire Wire Line
	8900 5100 9300 5100
Text Label 8900 5200 0    50   ~ 0
SPI1_MOSI
Text Label 4500 6300 0    50   ~ 0
SPI1_MISO
Wire Wire Line
	8800 5200 9300 5200
Wire Wire Line
	8900 5300 9300 5300
Wire Wire Line
	8800 5500 9300 5500
Text Label 8900 5700 0    50   ~ 0
SPI1_MISO
Wire Wire Line
	8700 5700 9300 5700
$Comp
L Connector:TestPoint TP6
U 1 1 5FAF00AF
P 8800 5200
F 0 "TP6" H 8858 5318 50  0000 L CNN
F 1 "TestPoint" H 8858 5227 50  0001 L CNN
F 2 "TestPoint:TestPoint_Pad_D1.0mm" H 9000 5200 50  0001 C CNN
F 3 "~" H 9000 5200 50  0001 C CNN
	1    8800 5200
	0    -1   -1   0   
$EndComp
Text Label 1200 6700 0    50   ~ 0
PB7_TIM4_CH2
$Comp
L power:GND #PWR0118
U 1 1 5FC5BE8A
P 5900 6100
F 0 "#PWR0118" H 5900 5850 50  0001 C CNN
F 1 "GND" H 5905 5927 50  0000 C CNN
F 2 "" H 5900 6100 50  0001 C CNN
F 3 "" H 5900 6100 50  0001 C CNN
	1    5900 6100
	1    0    0    -1  
$EndComp
Text Label 2800 6900 0    50   ~ 0
SPI2_NSS
Text Label 2800 7000 0    50   ~ 0
SPI2_SCK
Text Label 2800 7100 0    50   ~ 0
SPI2_MISO
Text Label 2800 7200 0    50   ~ 0
SPI2_MOSI
Wire Wire Line
	2800 6900 3200 6900
Wire Wire Line
	2800 7000 3200 7000
Wire Wire Line
	2800 7100 3200 7100
Wire Wire Line
	2800 7200 3200 7200
Text Label 2700 6000 0    50   ~ 0
n_BT_ENABLE
Text Label 4500 6500 0    50   ~ 0
I2C3_SCL
Text Label 2800 6200 0    50   ~ 0
I2C3_SDA
Text Label 4500 5700 0    50   ~ 0
ADC1_IN0
Wire Wire Line
	2600 6500 3200 6500
Wire Wire Line
	2600 6400 3200 6400
Wire Wire Line
	2600 6600 3200 6600
Wire Wire Line
	2600 6700 3200 6700
Text Label 2600 6400 0    50   ~ 0
PB6_TIM4_CH1
Text Label 2600 6600 0    50   ~ 0
PB8_TIM4_CH3
Text Label 2600 6700 0    50   ~ 0
PB9_TIM4_CH4
Text Label 2600 6500 0    50   ~ 0
PB7_TIM4_CH2
Wire Wire Line
	6600 2400 6900 2400
Wire Wire Line
	6900 2400 6900 2500
Text Label 5900 5900 0    50   ~ 0
SPI2_NSS
Text Label 5900 5800 0    50   ~ 0
SPI2_SCK
Text Label 5900 5700 0    50   ~ 0
SPI2_MISO
Text Label 5900 5600 0    50   ~ 0
SPI2_MOSI
Text Label 4500 7200 0    50   ~ 0
LED_3
Wire Wire Line
	2800 6300 3200 6300
Connection ~ 1100 3900
Text Label 2800 6300 0    50   ~ 0
PB5
Text Label 1200 6300 0    50   ~ 0
I2C3_SCL
Text Label 1200 6200 0    50   ~ 0
I2C3_SDA
$Comp
L power:GND #PWR0120
U 1 1 60147FD1
P 1900 6500
F 0 "#PWR0120" H 1900 6250 50  0001 C CNN
F 1 "GND" H 1905 6327 50  0000 C CNN
F 2 "" H 1900 6500 50  0001 C CNN
F 3 "" H 1900 6500 50  0001 C CNN
	1    1900 6500
	1    0    0    -1  
$EndComp
Wire Wire Line
	1200 6500 1900 6500
Text Label 8900 5400 0    50   ~ 0
PB0
Text Label 5900 5400 0    50   ~ 0
I2C2_SDA
Text Label 5900 6000 0    50   ~ 0
ADC1_IN0
Wire Wire Line
	2800 5900 3200 5900
$Comp
L Device:R_Small R15
U 1 1 601B4254
P 8200 5500
F 0 "R15" H 8141 5454 50  0000 R CNN
F 1 "100k" H 8141 5545 50  0000 R CNN
F 2 "Resistor_SMD:R_0402_1005Metric" H 8200 5500 50  0001 C CNN
F 3 "~" H 8200 5500 50  0001 C CNN
	1    8200 5500
	-1   0    0    1   
$EndComp
Text Label 8200 5400 0    50   ~ 0
PB0
$Comp
L power:GND #PWR0121
U 1 1 601B564F
P 8200 5600
F 0 "#PWR0121" H 8200 5350 50  0001 C CNN
F 1 "GND" H 8205 5427 50  0000 C CNN
F 2 "" H 8200 5600 50  0001 C CNN
F 3 "" H 8200 5600 50  0001 C CNN
	1    8200 5600
	1    0    0    -1  
$EndComp
Wire Wire Line
	8200 5400 9300 5400
$Comp
L Device:C_Small C20
U 1 1 6036BC48
P 3800 1100
F 0 "C20" H 3892 1146 50  0000 L CNN
F 1 "4.7uF" H 3892 1055 50  0000 L CNN
F 2 "Capacitor_SMD:C_0603_1608Metric" H 3800 1100 50  0001 C CNN
F 3 "~" H 3800 1100 50  0001 C CNN
	1    3800 1100
	1    0    0    -1  
$EndComp
Wire Wire Line
	3400 1000 3800 1000
Wire Wire Line
	3400 1200 3800 1200
Connection ~ 3400 1200
$Comp
L Device:C_Small C21
U 1 1 6038458F
P 6200 1000
F 0 "C21" H 6292 1046 50  0000 L CNN
F 1 "4.7uF" H 6292 955 50  0000 L CNN
F 2 "Capacitor_SMD:C_0603_1608Metric" H 6200 1000 50  0001 C CNN
F 3 "~" H 6200 1000 50  0001 C CNN
	1    6200 1000
	1    0    0    -1  
$EndComp
Wire Wire Line
	5900 1100 6200 1100
Connection ~ 5900 1100
Wire Wire Line
	6100 900  6200 900 
Connection ~ 6100 900 
Text Label 8400 2600 0    50   ~ 0
URXD0
Text Label 8400 2700 0    50   ~ 0
UTXD0
Text Label 9000 3500 0    50   ~ 0
URXD0
Text Label 9000 3600 0    50   ~ 0
UTXD0
Wire Wire Line
	8400 3600 9000 3600
Wire Wire Line
	9000 3500 8400 3500
Text Label 4500 5900 0    50   ~ 0
USART2_TX
Text Label 8400 3600 0    50   ~ 0
USART2_RX
Text Label 8400 3500 0    50   ~ 0
USART2_TX
Text Label 1200 7100 0    50   ~ 0
USART2_RX
Text Label 1200 7000 0    50   ~ 0
USART2_TX
$Comp
L Device:R_Small R17
U 1 1 5FB3FE77
P 1700 6100
F 0 "R17" V 1504 6100 50  0000 C CNN
F 1 "5.1k" V 1595 6100 50  0000 C CNN
F 2 "Resistor_SMD:R_0402_1005Metric" H 1700 6100 50  0001 C CNN
F 3 "~" H 1700 6100 50  0001 C CNN
	1    1700 6100
	-1   0    0    1   
$EndComp
$Comp
L Device:R_Small R18
U 1 1 5FB40AEB
P 2000 6200
F 0 "R18" V 1804 6200 50  0000 C CNN
F 1 "5.1k" V 1895 6200 50  0000 C CNN
F 2 "Resistor_SMD:R_0402_1005Metric" H 2000 6200 50  0001 C CNN
F 3 "~" H 2000 6200 50  0001 C CNN
	1    2000 6200
	-1   0    0    1   
$EndComp
Wire Wire Line
	1700 6000 2000 6000
Wire Wire Line
	2000 6000 2000 6100
Wire Wire Line
	1200 6300 2000 6300
Wire Wire Line
	1700 6200 1200 6200
$Comp
L Device:R_Small R19
U 1 1 5FB5BB5C
P 6400 5300
F 0 "R19" V 6204 5300 50  0000 C CNN
F 1 "5.1k" V 6295 5300 50  0000 C CNN
F 2 "Resistor_SMD:R_0402_1005Metric" H 6400 5300 50  0001 C CNN
F 3 "~" H 6400 5300 50  0001 C CNN
	1    6400 5300
	-1   0    0    1   
$EndComp
$Comp
L Device:R_Small R20
U 1 1 5FB5CBCE
P 6700 5400
F 0 "R20" V 6504 5400 50  0000 C CNN
F 1 "5.1k" V 6595 5400 50  0000 C CNN
F 2 "Resistor_SMD:R_0402_1005Metric" H 6700 5400 50  0001 C CNN
F 3 "~" H 6700 5400 50  0001 C CNN
	1    6700 5400
	-1   0    0    1   
$EndComp
Wire Wire Line
	5900 5500 6700 5500
Wire Wire Line
	6400 5400 5900 5400
Wire Wire Line
	6400 5200 6700 5200
Wire Wire Line
	6700 5200 6700 5300
$Comp
L power:VCC #PWR0103
U 1 1 5FB6F615
P 1300 5600
F 0 "#PWR0103" H 1300 5450 50  0001 C CNN
F 1 "VCC" H 1315 5773 50  0000 C CNN
F 2 "" H 1300 5600 50  0001 C CNN
F 3 "" H 1300 5600 50  0001 C CNN
	1    1300 5600
	1    0    0    -1  
$EndComp
$Comp
L power:VCC #PWR0105
U 1 1 5FB70936
P 6700 5200
F 0 "#PWR0105" H 6700 5050 50  0001 C CNN
F 1 "VCC" H 6715 5373 50  0000 C CNN
F 2 "" H 6700 5200 50  0001 C CNN
F 3 "" H 6700 5200 50  0001 C CNN
	1    6700 5200
	1    0    0    -1  
$EndComp
Connection ~ 6700 5200
$Comp
L power:VCC #PWR0106
U 1 1 5FB734AE
P 3800 4300
F 0 "#PWR0106" H 3800 4150 50  0001 C CNN
F 1 "VCC" H 3815 4473 50  0000 C CNN
F 2 "" H 3800 4300 50  0001 C CNN
F 3 "" H 3800 4300 50  0001 C CNN
	1    3800 4300
	1    0    0    -1  
$EndComp
Connection ~ 3800 4300
$Comp
L power:VCC #PWR0113
U 1 1 5FB79969
P 4500 2300
F 0 "#PWR0113" H 4500 2150 50  0001 C CNN
F 1 "VCC" H 4515 2473 50  0000 C CNN
F 2 "" H 4500 2300 50  0001 C CNN
F 3 "" H 4500 2300 50  0001 C CNN
	1    4500 2300
	1    0    0    -1  
$EndComp
$Comp
L power:VCC #PWR0115
U 1 1 5FB7AF9C
P 5900 900
F 0 "#PWR0115" H 5900 750 50  0001 C CNN
F 1 "VCC" H 5915 1073 50  0000 C CNN
F 2 "" H 5900 900 50  0001 C CNN
F 3 "" H 5900 900 50  0001 C CNN
	1    5900 900 
	1    0    0    -1  
$EndComp
$Comp
L power:VCC #PWR0119
U 1 1 5FB7C8A0
P 7200 2300
F 0 "#PWR0119" H 7200 2150 50  0001 C CNN
F 1 "VCC" H 7215 2473 50  0000 C CNN
F 2 "" H 7200 2300 50  0001 C CNN
F 3 "" H 7200 2300 50  0001 C CNN
	1    7200 2300
	1    0    0    -1  
$EndComp
$Comp
L power:VCC #PWR0122
U 1 1 5FB7F329
P 7900 3300
F 0 "#PWR0122" H 7900 3150 50  0001 C CNN
F 1 "VCC" H 7915 3473 50  0000 C CNN
F 2 "" H 7900 3300 50  0001 C CNN
F 3 "" H 7900 3300 50  0001 C CNN
	1    7900 3300
	1    0    0    -1  
$EndComp
$Comp
L power:VCC #PWR0123
U 1 1 5FB8931F
P 8900 5300
F 0 "#PWR0123" H 8900 5150 50  0001 C CNN
F 1 "VCC" V 8915 5427 50  0000 L CNN
F 2 "" H 8900 5300 50  0001 C CNN
F 3 "" H 8900 5300 50  0001 C CNN
	1    8900 5300
	0    -1   -1   0   
$EndComp
$Comp
L power:VCC #PWR0124
U 1 1 5FB89FFE
P 2700 2600
F 0 "#PWR0124" H 2700 2450 50  0001 C CNN
F 1 "VCC" H 2715 2773 50  0000 C CNN
F 2 "" H 2700 2600 50  0001 C CNN
F 3 "" H 2700 2600 50  0001 C CNN
	1    2700 2600
	1    0    0    -1  
$EndComp
$Comp
L power:VCC #PWR0125
U 1 1 5FB8DA84
P 3300 3400
F 0 "#PWR0125" H 3300 3250 50  0001 C CNN
F 1 "VCC" H 3315 3573 50  0000 C CNN
F 2 "" H 3300 3400 50  0001 C CNN
F 3 "" H 3300 3400 50  0001 C CNN
	1    3300 3400
	1    0    0    -1  
$EndComp
Connection ~ 3300 3400
$Comp
L power:VCC #PWR0126
U 1 1 5FB8DF31
P 5400 3500
F 0 "#PWR0126" H 5400 3350 50  0001 C CNN
F 1 "VCC" H 5415 3673 50  0000 C CNN
F 2 "" H 5400 3500 50  0001 C CNN
F 3 "" H 5400 3500 50  0001 C CNN
	1    5400 3500
	1    0    0    -1  
$EndComp
$Comp
L power:VCC #PWR0127
U 1 1 5FB8FC85
P 2000 6000
F 0 "#PWR0127" H 2000 5850 50  0001 C CNN
F 1 "VCC" H 2015 6173 50  0000 C CNN
F 2 "" H 2000 6000 50  0001 C CNN
F 3 "" H 2000 6000 50  0001 C CNN
	1    2000 6000
	1    0    0    -1  
$EndComp
Connection ~ 2000 6000
$Comp
L Connector_Generic:Conn_02x05_Odd_Even J5
U 1 1 5FB7449E
P 6300 4500
F 0 "J5" H 6350 4917 50  0000 C CNN
F 1 "Conn_02x05_Odd_Even" H 6350 4826 50  0000 C CNN
F 2 "footprints:DC3_2x05_P1.27mm_Vertical_SMD" H 6300 4500 50  0001 C CNN
F 3 "~" H 6300 4500 50  0001 C CNN
	1    6300 4500
	1    0    0    -1  
$EndComp
$Comp
L power:VCC #PWR0128
U 1 1 5FB75973
P 5700 4300
F 0 "#PWR0128" H 5700 4150 50  0001 C CNN
F 1 "VCC" H 5715 4473 50  0000 C CNN
F 2 "" H 5700 4300 50  0001 C CNN
F 3 "" H 5700 4300 50  0001 C CNN
	1    5700 4300
	1    0    0    -1  
$EndComp
Wire Wire Line
	6100 4300 5700 4300
$Comp
L power:GND #PWR0129
U 1 1 5FB806F0
P 5700 4400
F 0 "#PWR0129" H 5700 4150 50  0001 C CNN
F 1 "GND" H 5705 4227 50  0000 C CNN
F 2 "" H 5700 4400 50  0001 C CNN
F 3 "" H 5700 4400 50  0001 C CNN
	1    5700 4400
	1    0    0    -1  
$EndComp
Wire Wire Line
	5700 4400 6100 4400
Wire Wire Line
	6100 4400 6100 4500
Connection ~ 6100 4400
NoConn ~ 6100 4600
Text Label 6600 4300 0    50   ~ 0
SWDIO
Text Label 6600 4400 0    50   ~ 0
SWCLK
$Comp
L power:GND #PWR0130
U 1 1 5FBB0E90
P 5700 4700
F 0 "#PWR0130" H 5700 4450 50  0001 C CNN
F 1 "GND" H 5705 4527 50  0000 C CNN
F 2 "" H 5700 4700 50  0001 C CNN
F 3 "" H 5700 4700 50  0001 C CNN
	1    5700 4700
	1    0    0    -1  
$EndComp
Wire Wire Line
	5700 4700 6100 4700
Text Label 6600 4700 0    50   ~ 0
NRST
NoConn ~ 6600 4500
NoConn ~ 6600 4600
Text Label 7100 4500 0    50   ~ 0
I2C2_SDA
Text Label 7100 4600 0    50   ~ 0
I2C2_SCL
$Comp
L Mechanical:MountingHole H6
U 1 1 602ED8B7
P 8700 4300
F 0 "H6" H 8800 4346 50  0000 L CNN
F 1 "LOGO" H 8800 4255 50  0000 L CNN
F 2 "footprint:logo_lambdachip_com" H 8700 4300 50  0001 C CNN
F 3 "~" H 8700 4300 50  0001 C CNN
	1    8700 4300
	1    0    0    -1  
$EndComp
$Comp
L Mechanical:MountingHole H7
U 1 1 602EDC1E
P 8700 4500
F 0 "H7" H 8800 4546 50  0000 L CNN
F 1 "LOGO" H 8800 4455 50  0000 L CNN
F 2 "footprint:logo_alonzo_v1.0.0" H 8700 4500 50  0001 C CNN
F 3 "~" H 8700 4500 50  0001 C CNN
	1    8700 4500
	1    0    0    -1  
$EndComp
$Comp
L Device:LED_RABG D6
U 1 1 5FCF30DE
P 5700 6700
F 0 "D6" H 5700 7197 50  0000 C CNN
F 1 "LED_RABG" H 5700 7106 50  0000 C CNN
F 2 "LED_SMD:LED_ASMB-KTF0-0A306" H 5700 6650 50  0001 C CNN
F 3 "~" H 5700 6650 50  0001 C CNN
	1    5700 6700
	0    -1   -1   0   
$EndComp
$Comp
L Device:R_Small R10
U 1 1 5FB56F87
P 5700 7000
F 0 "R10" H 5759 7046 50  0000 L CNN
F 1 "1k" H 5759 6955 50  0000 L CNN
F 2 "Resistor_SMD:R_0402_1005Metric" H 5700 7000 50  0001 C CNN
F 3 "~" H 5700 7000 50  0001 C CNN
	1    5700 7000
	1    0    0    -1  
$EndComp
Wire Wire Line
	5700 7100 5700 7300
Wire Wire Line
	5900 7200 5900 7100
Wire Wire Line
	5500 7100 5400 7100
Wire Wire Line
	5400 7100 5400 7300
$Comp
L power:VCC #PWR0131
U 1 1 5FD79B24
P 6400 6700
F 0 "#PWR0131" H 6400 6550 50  0001 C CNN
F 1 "VCC" H 6415 6873 50  0000 C CNN
F 2 "" H 6400 6700 50  0001 C CNN
F 3 "" H 6400 6700 50  0001 C CNN
	1    6400 6700
	1    0    0    -1  
$EndComp
Wire Wire Line
	6400 7100 6400 7200
$Comp
L power:VCC #PWR0132
U 1 1 5FE11B70
P 5700 6500
F 0 "#PWR0132" H 5700 6350 50  0001 C CNN
F 1 "VCC" H 5715 6673 50  0000 C CNN
F 2 "" H 5700 6500 50  0001 C CNN
F 3 "" H 5700 6500 50  0001 C CNN
	1    5700 6500
	1    0    0    -1  
$EndComp
$EndSCHEMATC
